{
    "prefix": "Ad77271a.a05",
    "fasta": "ad77271a.v5.fasta",
    "busco": "eudicots_odb10",
    "augustus_species": "arabidopsis",
    "threads": 32,
    "intron_max": 150000,
    "long_reads": [
        "Ad77271ab_Baobab_flcDNA.all.fastq.gz"
    ]
}