{
    "busco": "viridiplantae_odb10",
    "augustus_species": "Ectocarpus_siliculosus",
    "threads": 32,
    "intron_max": 100000,
    "sra_short": ["SRR5026594", "SRR5026593", "SRR5026591", "SRR5026590", "SRR5026588", "SRR5026366"],
}