{
    "prefix": "Lp5562_ANAK.a04",
    "fasta": "Lp5562_ANAK.v2.fasta",
    "busco": "liliopsida_odb10",
    "augustus_species": "maize",
    "threads": 32,
    "intron_max": 50000,
    "sra_short": ["SRR2045958", "SRR2045956", "SRR2045957", "SRR2045955"],
    "long_reads": ["Lp5562_Lp5562ANAK_Lp5562A6.ont_PCRcDNA.S072.fastq.gz"]
}