acidobacteria_odb10.2020-03-06.tar.gz
aconoidasida_odb10.2020-08-05.tar.gz
actinobacteria_class_odb10.2020-03-06.tar.gz
actinobacteria_phylum_odb10.2020-03-06.tar.gz
actinopterygii_odb10.2020-08-05.tar.gz
agaricales_odb10.2020-08-05.tar.gz
agaricomycetes_odb10.2020-08-05.tar.gz
alphaproteobacteria_odb10.2020-03-06.tar.gz
alteromonadales_odb10.2020-03-06.tar.gz
alveolata_odb10.2020-09-10.tar.gz
apicomplexa_odb10.2020-09-10.tar.gz
aquificae_odb10.2020-03-06.tar.gz
arachnida_odb10.2020-08-05.tar.gz
archaea_odb10.2020-03-06.tar.gz
arthropoda_odb10.2020-09-10.tar.gz
ascomycota_odb10.2020-09-10.tar.gz
aves_odb10.2020-09-10.tar.gz
bacillales_odb10.2020-03-06.tar.gz
bacilli_odb10.2020-03-06.tar.gz
bacteria_odb10.2020-03-06.tar.gz
bacteroidales_odb10.2020-03-06.tar.gz
bacteroidetes-chlorobi_group_odb10.2020-03-06.tar.gz
bacteroidetes_odb10.2020-03-06.tar.gz
bacteroidia_odb10.2020-03-06.tar.gz
basidiomycota_odb10.2020-09-10.tar.gz
betaproteobacteria_odb10.2020-03-06.tar.gz
boletales_odb10.2020-08-05.tar.gz
brassicales_odb10.2020-08-05.tar.gz
burkholderiales_odb10.2020-03-06.tar.gz
campylobacterales_odb10.2020-03-06.tar.gz
capnodiales_odb10.2020-08-05.tar.gz
carnivora_odb10.2020-08-05.tar.gz
cellvibrionales_odb10.2020-03-06.tar.gz
cetartiodactyla_odb10.2020-08-05.tar.gz
chaetothyriales_odb10.2020-08-05.tar.gz
chlamydiae_odb10.2020-03-06.tar.gz
chlorobi_odb10.2020-03-06.tar.gz
chloroflexi_odb10.2020-03-06.tar.gz
chlorophyta_odb10.2020-08-05.tar.gz
chromatiales_odb10.2020-03-06.tar.gz
chroococcales_odb10.2020-03-06.tar.gz
clostridia_odb10.2020-03-06.tar.gz
clostridiales_odb10.2020-03-06.tar.gz
coccidia_odb10.2020-08-05.tar.gz
coriobacteriales_odb10.2020-03-06.tar.gz
coriobacteriia_odb10.2020-03-06.tar.gz
corynebacteriales_odb10.2020-03-06.tar.gz
cyanobacteria_odb10.2020-03-06.tar.gz
cyprinodontiformes_odb10.2020-08-05.tar.gz
cytophagales_odb10.2020-03-06.tar.gz
cytophagia_odb10.2020-03-06.tar.gz
delta-epsilon-subdivisions_odb10.2020-03-06.tar.gz
deltaproteobacteria_odb10.2020-03-06.tar.gz
desulfobacterales_odb10.2020-03-06.tar.gz
desulfovibrionales_odb10.2020-03-06.tar.gz
desulfurococcales_odb10.2020-03-06.tar.gz
desulfuromonadales_odb10.2020-03-06.tar.gz
diptera_odb10.2020-08-05.tar.gz
dothideomycetes_odb10.2020-08-05.tar.gz
embryophyta_odb10.2020-09-10.tar.gz
endopterygota_odb10.2020-09-10.tar.gz
enterobacterales_odb10.2020-03-06.tar.gz
entomoplasmatales_odb10.2020-03-06.tar.gz
epsilonproteobacteria_odb10.2020-03-06.tar.gz
euarchontoglires_odb10.2020-09-10.tar.gz
eudicots_odb10.2020-09-10.tar.gz
euglenozoa_odb10.2020-08-05.tar.gz
eukaryota_odb10.2020-09-10.tar.gz
eurotiales_odb10.2020-08-05.tar.gz
eurotiomycetes_odb10.2020-08-05.tar.gz
euryarchaeota_odb10.2020-03-06.tar.gz
eutheria_odb10.2020-09-10.tar.gz
fabales_odb10.2020-08-05.tar.gz
firmicutes_odb10.2020-03-06.tar.gz
flavobacteriales_odb10.2020-03-06.tar.gz
flavobacteriia_odb10.2020-03-06.tar.gz
fungi_odb10.2020-09-10.tar.gz
fusobacteria_odb10.2020-03-06.tar.gz
fusobacteriales_odb10.2020-03-06.tar.gz
gammaproteobacteria_odb10.2020-03-06.tar.gz
glires_odb10.2020-08-05.tar.gz
glomerellales_odb10.2020-08-05.tar.gz
halobacteria_odb10.2020-03-06.tar.gz
halobacteriales_odb10.2020-03-06.tar.gz
haloferacales_odb10.2020-03-06.tar.gz
helotiales_odb10.2020-08-05.tar.gz
hemiptera_odb10.2020-08-05.tar.gz
hymenoptera_odb10.2020-08-05.tar.gz
hypocreales_odb10.2020-08-05.tar.gz
insecta_odb10.2020-09-10.tar.gz
lactobacillales_odb10.2020-03-06.tar.gz
laurasiatheria_odb10.2020-09-10.tar.gz
legionellales_odb10.2020-03-06.tar.gz
leotiomycetes_odb10.2020-08-05.tar.gz
lepidoptera_odb10.2020-08-05.tar.gz
liliopsida_odb10.2020-09-10.tar.gz
mammalia_odb10.2020-09-10.tar.gz
metazoa_odb10.2020-09-10.tar.gz
methanobacteria_odb10.2020-03-06.tar.gz
methanococcales_odb10.2020-03-06.tar.gz
methanomicrobia_odb10.2020-03-06.tar.gz
methanomicrobiales_odb10.2020-03-06.tar.gz
micrococcales_odb10.2020-03-06.tar.gz
microsporidia_odb10.2020-08-05.tar.gz
mollicutes_odb10.2020-03-06.tar.gz
mollusca_odb10.2020-08-05.tar.gz
mucorales_odb10.2020-08-05.tar.gz
mucoromycota_odb10.2020-08-05.tar.gz
mycoplasmatales_odb10.2020-03-06.tar.gz
natrialbales_odb10.2020-03-06.tar.gz
neisseriales_odb10.2020-03-06.tar.gz
nematoda_odb10.2020-08-05.tar.gz
nitrosomonadales_odb10.2020-03-06.tar.gz
nostocales_odb10.2020-03-06.tar.gz
oceanospirillales_odb10.2020-03-06.tar.gz
onygenales_odb10.2020-08-05.tar.gz
oscillatoriales_odb10.2020-03-06.tar.gz
passeriformes_odb10.2020-08-05.tar.gz
pasteurellales_odb10.2020-03-06.tar.gz
planctomycetes_odb10.2020-03-06.tar.gz
plasmodium_odb10.2020-08-05.tar.gz
pleosporales_odb10.2020-08-05.tar.gz
poales_odb10.2020-08-05.tar.gz
polyporales_odb10.2020-08-05.tar.gz
primates_odb10.2020-08-05.tar.gz
propionibacteriales_odb10.2020-03-06.tar.gz
proteobacteria_odb10.2020-03-06.tar.gz
pseudomonadales_odb10.2020-03-06.tar.gz
rhizobiales_odb10.2020-03-06.tar.gz
rhizobium-agrobacterium_group_odb10.2020-03-06.tar.gz
rhodobacterales_odb10.2020-03-06.tar.gz
rhodospirillales_odb10.2020-03-06.tar.gz
rickettsiales_odb10.2020-03-06.tar.gz
saccharomycetes_odb10.2020-08-05.tar.gz
sauropsida_odb10.2020-09-10.tar.gz
selenomonadales_odb10.2020-03-06.tar.gz
solanales_odb10.2020-08-05.tar.gz
sordariomycetes_odb10.2020-08-05.tar.gz
sphingobacteriia_odb10.2020-03-06.tar.gz
sphingomonadales_odb10.2020-03-06.tar.gz
spirochaetales_odb10.2020-03-06.tar.gz
spirochaetes_odb10.2020-03-06.tar.gz
spirochaetia_odb10.2020-03-06.tar.gz
stramenopiles_odb10.2020-08-05.tar.gz
streptomycetales_odb10.2020-03-06.tar.gz
streptosporangiales_odb10.2020-03-06.tar.gz
sulfolobales_odb10.2020-03-06.tar.gz
synechococcales_odb10.2020-03-06.tar.gz
synergistetes_odb10.2020-03-06.tar.gz
tenericutes_odb10.2020-03-06.tar.gz
tetrapoda_odb10.2020-09-10.tar.gz
thaumarchaeota_odb10.2020-03-06.tar.gz
thermoanaerobacterales_odb10.2020-03-06.tar.gz
thermoplasmata_odb10.2020-03-06.tar.gz
thermoproteales_odb10.2020-03-06.tar.gz
thermoprotei_odb10.2020-03-06.tar.gz
thermotogae_odb10.2020-03-06.tar.gz
thiotrichales_odb10.2020-03-06.tar.gz
tissierellales_odb10.2020-03-06.tar.gz
tissierellia_odb10.2020-03-06.tar.gz
tremellomycetes_odb10.2020-08-05.tar.gz
verrucomicrobia_odb10.2020-03-06.tar.gz
vertebrata_odb10.2020-09-10.tar.gz
vibrionales_odb10.2020-03-06.tar.gz
viridiplantae_odb10.2020-09-10.tar.gz
xanthomonadales_odb10.2020-03-06.tar.gz